…
1.  Now, we want to see how many aisles are there in the dataset
    “instacart” and which aisle has the most orders.

``` r
sum_by_aisle = 
  instacart %>% 
  group_by(aisle) %>% 
  summarise(n_obs = n())

sum_by_aisle
```

    ## # A tibble: 134 x 2
    ##    aisle                  n_obs
    ##    <chr>                  <int>
    ##  1 air fresheners candles  1067
    ##  2 asian foods             7007
    ##  3 baby accessories         306
    ##  4 baby bath body care      328
    ##  5 baby food formula      13198
    ##  6 bakery desserts         1501
    ##  7 baking ingredients     13088
    ##  8 baking supplies decor   1094
    ##  9 beauty                   287
    ## 10 beers coolers           1839
    ## # ... with 124 more rows
…
There are 134 aisles in total, and the most items are ordered from the
aisle “fresh vegetables”, which is 150609 in total.

2.  Then we try to show the number of items sold in each aisle with a
    number over 10000 via a scatter plot.

``` r
filter_sum_by_aisle = 
  sum_by_aisle %>% 
  filter(n_obs > 10000)

filter_sum_by_aisle
```

    ## # A tibble: 39 x 2
    ##    aisle                    n_obs
    ##    <chr>                    <int>
    ##  1 baby food formula        13198
    ##  2 baking ingredients       13088
    ##  3 bread                    23635
    ##  4 butter                   10575
    ##  5 candy chocolate          11453
    ##  6 canned jarred vegetables 12679
    ##  7 canned meals beans       11774
    ##  8 cereal                   16201
    ##  9 chips pretzels           31269
    ## 10 crackers                 19592
    ## # ... with 29 more rows
…
accel_data
```

    ## # A tibble: 50,400 x 6
    ##     week day_id day    minutes activity day_type
    ##    <int>  <int> <chr>    <int>    <dbl> <chr>   
    ##  1     1      1 Friday       1     88.4 weekday 
    ##  2     1      1 Friday       2     82.2 weekday 
    ##  3     1      1 Friday       3     64.4 weekday 
    ##  4     1      1 Friday       4     70.0 weekday 
    ##  5     1      1 Friday       5     75.0 weekday 
    ##  6     1      1 Friday       6     66.3 weekday 
    ##  7     1      1 Friday       7     53.8 weekday 
    ##  8     1      1 Friday       8     47.8 weekday 
    ##  9     1      1 Friday       9     55.5 weekday 
    ## 10     1      1 Friday      10     43.0 weekday 
    ## # ... with 50,390 more rows
…
2.  Aggredate the total activities for each day.

``` r
accel_data %>% 
  group_by(week, day) %>% 
  summarize(
    sum_activity = sum(activity)
  )
```

    ## `summarise()` has grouped output by 'week'. You can override using the `.groups` argument.

    ## # A tibble: 35 x 3
    ## # Groups:   week [5]
    ##     week day       sum_activity
    ##    <int> <chr>            <dbl>
    ##  1     1 Friday         480543.
    ##  2     1 Monday          78828.
    ##  3     1 Saturday       376254 
    ##  4     1 Sunday         631105 
    ##  5     1 Thursday       355924.
    ##  6     1 Tuesday        307094.
    ##  7     1 Wednesday      340115.
    ##  8     2 Friday         568839 
    ##  9     2 Monday         295431 
    ## 10     2 Saturday       607175 
    ## # ... with 25 more rows
…
